<svg xmlns="http://www.w3.org/2000/svg" width="16.953" height="16.952" viewBox="0 0 16.953 16.952">
  <g id="Group_490" data-name="Group 490" transform="translate(-2.591 -2.592)">
    <g id="Ellipse_315" data-name="Ellipse 315" transform="translate(2.591 2.591)" fill="none" stroke="#707070" stroke-width="2">
      <circle cx="6.256" cy="6.256" r="6.256" stroke="none"/>
      <circle cx="6.256" cy="6.256" r="5.256" fill="none"/>
    </g>
    <path id="Path_237" data-name="Path 237" d="M0,0V8.607" transform="translate(12.751 12.751) rotate(-45)" fill="none" stroke="#707070" stroke-width="2"/>
  </g>
</svg>
