<svg xmlns="http://www.w3.org/2000/svg" width="29.995" height="26.443" viewBox="0 0 29.995 26.443">
  <g id="europe" transform="translate(-0.025 -0.5)">
    <path id="Path_245" data-name="Path 245" d="M26.712.5a2.517,2.517,0,0,0-1.835.684C22.039,3.862,21.462,5.9,20.9,5.865a1.753,1.753,0,0,1-.849-.318c-.3-.2.168-1.27.269-1.483.155-.326-.016-.713-1.773-1.3a4.132,4.132,0,0,0-2.114-.309,3.772,3.772,0,0,0-2.239,2.074,6.161,6.161,0,0,1-1.9,2.462c-.285.171-.6.288-.874.48-.254.18-1.275,1.433-1.084,1.886a.824.824,0,0,0,.705.486,1.863,1.863,0,0,0,1.343-.565c.078-.066.082,2.753.7,2.821.678.075,1.627-1.912,1.65-2.528s-.5-.578-.472-.957a4.664,4.664,0,0,1,.328-1.091c.25-.729.33-1.564,1.049-2.013.327-.2,1.3.759,1.154,1.086-.194.424-.53.772-.713,1.2a1,1,0,0,0,.256,1.251c.432.245.953-.064,1.386-.309s1.089-.374,1.337.058a4.711,4.711,0,0,1-.72,1.989,1.605,1.605,0,0,1-1.872.605c-.315.051-.487.408-.509.727a6,6,0,0,1-.024.957c-.208.886-1.348,1.1-2.256,1.14l-1.8.074a.5.5,0,0,1-.348-.073.476.476,0,0,1-.118-.361c-.013-.483.235-1.053-.085-1.443-.261-.248-1.031-.183-1.163.152s.111.982-.135,1.314-.887.468-1.295,1.2a3.375,3.375,0,0,1-.952.862c-.983.311-2.509-.393-3.009.147-.418.515-.186,1.273.03,1.9s.35,1.441-.169,1.853c-.469.373-1.152.158-1.7-.071L1.549,19.2c-.356-.148-1.6,3.146-1.521,3.543.147.7,2.515,1.546,3,1.658.347.081.989-1.053,1.145-1.319a1.774,1.774,0,0,1,1.248-.916c.262-.032.578-.005.736-.217.125-.167.084-.41.184-.593.182-.334.664-.281,1.042-.238a3.761,3.761,0,0,0,1.885-.275.667.667,0,0,1,.8.218c.454.63.731,1.767,1.139,2.441.361.6-.135,2.408-.514,2.439a.134.134,0,0,0-.108.2,2.64,2.64,0,0,0,.749.737.993.993,0,0,0,.658.017,4.193,4.193,0,0,0,1.953-1.922c-.126-.233-2.155-3.624-2.2-3.835a.409.409,0,0,1,.607-.438l2.456,1.441a1.05,1.05,0,0,1,.374.306c.229.356-.031.842.092,1.247.095.313.393.509.635.727s.1.687.319.856a.6.6,0,0,0,.466-.009.918.918,0,0,1,.358-.077c.294,0,.6-.11.544-.389a12.384,12.384,0,0,0-.56-1.135c-.079-.293.231-.341.4-.349s.6,0,.823,0a3.327,3.327,0,0,0,1.409-1.442l.282-1.584a1.217,1.217,0,0,1,.268-.672,10.686,10.686,0,0,1,2-.273c.353-.268.615-.634.945-.927.312-.277.951-.634,1.133-.42s.465,1.1-.968,1.908c-.307.174-.314.429-.153.762a.435.435,0,0,0,.39.234c.38.006.928-.53,1.57-.005.048.039.378.957-.314,1.153a14.083,14.083,0,0,1-2.465.375,2.278,2.278,0,0,0-1.434.54c-.252.273-.368.667-.67.882a6,6,0,0,0-.52.3.859.859,0,0,0-.2.869,2.527,2.527,0,0,0,.464.812,1.27,1.27,0,0,0,.422.41.972.972,0,0,0,.47.077c.946-.039,1.864-.717,2.771-.443a2.133,2.133,0,0,0,.576.159,1.33,1.33,0,0,0,.729-.33A7.052,7.052,0,0,1,28.013,24.5c.236-.033.51-.078.624-.287a.735.735,0,0,0,.065-.321,1.86,1.86,0,0,0-.427-1.594,2.964,2.964,0,0,0-.633-.318,1.417,1.417,0,0,1-.558-1.72c.167-.28,1.617.463,2.414.9a.351.351,0,0,0,.52-.309v-20A.351.351,0,0,0,29.666.5C28.877.506,27.019.515,26.712.5Zm0,0" transform="translate(0 0)"/>
    <g id="Group_310" data-name="Group 310" transform="translate(26.41 0.5)">
      <path id="Path_246" data-name="Path 246" d="M450.949.509l-.213,0a2.513,2.513,0,0,0-.3.006Zm0,0" transform="translate(-450.434 -0.503)"/>
    </g>
  </g>
</svg>
