<svg xmlns="http://www.w3.org/2000/svg" width="21.174" height="21.174" viewBox="0 0 21.174 21.174">
  <path id="Icon_awesome-globe-americas" data-name="Icon awesome-globe-americas" d="M10.587.563A10.587,10.587,0,1,0,21.174,11.149,10.587,10.587,0,0,0,10.587.563ZM14.1,15.828l-.483.482a1.02,1.02,0,0,0-.263.457c-.064.242-.117.486-.2.72l-.742,2a8.531,8.531,0,0,1-1.821.2V18.518a3.2,3.2,0,0,0-.966-2.188,1.366,1.366,0,0,1-.4-.966V14a1.362,1.362,0,0,0-.7-1.194c-.613-.339-1.486-.814-2.084-1.115a6.154,6.154,0,0,1-1.351-.928l-.034-.031a4.9,4.9,0,0,1-.771-.885C3.878,9.257,3.226,8.29,2.8,7.662a8.584,8.584,0,0,1,4.406-4.35l1.025.513a.683.683,0,0,0,.989-.611V2.732a8.532,8.532,0,0,1,1.041-.1L11.47,3.836a.683.683,0,0,1,0,.966l-.2.2-.441.441a.342.342,0,0,0,0,.483l.2.2a.342.342,0,0,1,0,.483l-.342.342a.342.342,0,0,1-.242.1h-.384a.341.341,0,0,0-.238.1L9.4,7.56a.342.342,0,0,0-.067.4L10,9.289a.342.342,0,0,1-.305.494H9.452A.341.341,0,0,1,9.229,9.7l-.4-.344a.684.684,0,0,0-.664-.132l-1.331.444a.51.51,0,0,0-.067.94l.473.236a2.891,2.891,0,0,0,1.294.306c.449,0,.964,1.165,1.366,1.366h2.85a1.367,1.367,0,0,1,.966.4l.584.584a1.3,1.3,0,0,1,.381.921,1.987,1.987,0,0,1-.586,1.408Zm3.7-3.9a1.025,1.025,0,0,1-.6-.426l-.768-1.151a1.023,1.023,0,0,1,0-1.136l.836-1.254a1.023,1.023,0,0,1,.394-.348l.554-.277a8.271,8.271,0,0,1,.832,4.9Z" transform="translate(0 -0.563)"/>
</svg>
