<?xml version="1.0" encoding="utf-8"?>
<!-- Generator: Adobe Illustrator 24.3.0, SVG Export Plug-In . SVG Version: 6.00 Build 0)  -->
<svg version="1.1" id="Layer_1" xmlns="http://www.w3.org/2000/svg" xmlns:xlink="http://www.w3.org/1999/xlink" x="0px" y="0px"
	 viewBox="0 0 32 32" enable-background="new 0 0 32 32" xml:space="preserve">
<path fill="#A7A7A7" d="M31.3,27.4c0,1.4-1.2,2.6-2.6,2.6s-2.6-1.2-2.6-2.6s1.2-2.6,2.6-2.6l0,0C30.2,24.8,31.3,26,31.3,27.4z
	 M12.4,27.4c0,1.4-1.2,2.6-2.6,2.6s-2.6-1.2-2.6-2.6s1.2-2.6,2.6-2.6l0,0C11.2,24.8,12.4,26,12.4,27.4z M30.7,21.5H10.3l0.4-0.7
	c0.2-0.3,0.2-0.7,0.2-1l-0.4-1.6l18.9-1c0.7,0,1.3-0.6,1.3-1.4V7.2c0-0.7-0.6-1.3-1.3-1.3H7.3L7,4.9c-0.1-0.6-0.7-1-1.3-1H1.3
	C0.6,3.9,0,4.5,0,5.2s0.6,1.3,1.3,1.3l0,0h3.4l3.5,13.4l-1.4,2.2c-0.4,0.6-0.2,1.4,0.4,1.8c0.2,0.1,0.4,0.2,0.7,0.2h22.7
	c0.7,0,1.3-0.6,1.3-1.3C32,22.1,31.4,21.5,30.7,21.5L30.7,21.5z"/>
</svg>
