﻿year,sector,commitments,companies_reporting
2020,Restaurants,65,32
2020,Manufacturers,29,21
2020,Food Service & Hospitality,36,26
2020,Retailers & Meal Kits,72,50
2020,Producers,8,5
2019,Restaurants,63,31
2019,Manufacturers,31,21
2019,Food Service & Hospitality,37,20
2019,Retailers & Meal Kits,71,39
2019,Producers,6,2
2018,Restaurants,55,24
2018,Manufacturers,23,14
2018,Food Service & Hospitality,25,12
2018,Retailers & Meal Kits,57,29
2018,Producers,2,1
2017,Restaurants,25,6
2017,Manufacturers,13,5
2017,Food Service & Hospitality,10,3
2017,Retailers & Meal Kits,15,5
2017,Producers,0,0
