<?xml version="1.0" encoding="utf-8"?>
<!-- Generator: Adobe Illustrator 24.3.0, SVG Export Plug-In . SVG Version: 6.00 Build 0)  -->
<svg version="1.1" id="Layer_1" xmlns="http://www.w3.org/2000/svg" xmlns:xlink="http://www.w3.org/1999/xlink" x="0px" y="0px"
	 viewBox="0 0 32 32" enable-background="new 0 0 32 32" xml:space="preserve">
<path fill="#A7A7A7" d="M15,5.1c0,0,0-0.1,0-0.1V4c0-0.6-0.4-1-1-1s-1,0.4-1,1v1c0,0,0,0.1,0,0.1C10.5,5.5,8.5,7.5,8.1,10h11.8
	C19.5,7.5,17.5,5.5,15,5.1z"/>
<polygon fill="#A7A7A7" points="25.5,5.6 24.2,4.4 24.2,1.4 22.7,1.4 22.7,4.4 21.5,5.6 21.5,10 25.5,10 "/>
<path fill="#A7A7A7" d="M5.7,25.8c-1.4,0-2.6,1.2-2.6,2.6c0,1.4,1.2,2.6,2.6,2.6c1.4,0,2.6-1.2,2.6-2.6C8.3,27,7.2,25.8,5.7,25.8z"
	/>
<path fill="#A7A7A7" d="M27.7,25.8c-1.4,0-2.6,1.2-2.6,2.6c0,1.4,1.2,2.6,2.6,2.6c1.4,0,2.6-1.2,2.6-2.6
	C30.3,27,29.2,25.8,27.7,25.8z"/>
<path fill="#A7A7A7" d="M30.4,23H29V12.2c0-0.6-0.4-1-1-1H6.5L2.2,7.1c-0.4-0.4-1-0.4-1.4,0c-0.4,0.4-0.4,1,0,1.4l4.2,4V23H3.8
	c-0.6,0-1,0.4-1,1s0.4,1,1,1h26.6c0.6,0,1-0.4,1-1S31,23,30.4,23z M27,23H7v-2h20V23z"/>
</svg>
