<?xml version="1.0" encoding="utf-8"?>
<!-- Generator: Adobe Illustrator 24.3.0, SVG Export Plug-In . SVG Version: 6.00 Build 0)  -->
<svg version="1.1" id="Layer_1" xmlns="http://www.w3.org/2000/svg" xmlns:xlink="http://www.w3.org/1999/xlink" x="0px" y="0px"
	 viewBox="0 0 32 32" enable-background="new 0 0 32 32" xml:space="preserve">
<path fill="#A7A7A7" d="M28.2,29.1H27V2.4C27,1.6,26.4,1,25.6,1H5.9C5.1,1,4.5,1.6,4.5,2.4v26.7H3.3c-0.4,0-0.7,0.3-0.7,0.7V31h26.2
	v-1.2C28.9,29.4,28.6,29.1,28.2,29.1z M10.1,5.5c0-0.4,0.3-0.7,0.7-0.7h2.3c0.4,0,0.7,0.3,0.7,0.7v2.3c0,0.4-0.3,0.7-0.7,0.7h-2.3
	c-0.4,0-0.7-0.3-0.7-0.7V5.5z M10.1,11.1c0-0.4,0.3-0.7,0.7-0.7h2.3c0.4,0,0.7,0.3,0.7,0.7v2.3c0,0.4-0.3,0.7-0.7,0.7h-2.3
	c-0.4,0-0.7-0.3-0.7-0.7V11.1z M13.2,19.8h-2.3c-0.4,0-0.7-0.3-0.7-0.7v-2.3c0-0.4,0.3-0.7,0.7-0.7h2.3c0.4,0,0.7,0.3,0.7,0.7V19
	C13.9,19.4,13.6,19.7,13.2,19.8z M13.8,29.1v-4.9c0-0.4,0.3-0.7,0.7-0.7h2.3c0.4,0,0.7,0.3,0.7,0.7v4.9H13.8z M21.4,19
	c0,0.4-0.3,0.7-0.7,0.7h-2.3c-0.4,0-0.7-0.3-0.7-0.7v-2.3c0-0.4,0.3-0.7,0.7-0.7h2.3c0.4,0,0.7,0.3,0.7,0.7V19z M21.4,13.4
	c0,0.4-0.3,0.7-0.7,0.7h-2.3c-0.4,0-0.7-0.3-0.7-0.7v-2.3c0-0.4,0.3-0.7,0.7-0.7h2.3c0.4,0,0.7,0.3,0.7,0.7V13.4z M21.4,7.8
	c0,0.4-0.3,0.7-0.7,0.7h-2.3c-0.4,0-0.7-0.3-0.7-0.7V5.5c0-0.4,0.3-0.7,0.7-0.7h2.3c0.4,0,0.7,0.3,0.7,0.7V7.8z"/>
</svg>
